Cure Model Regression — cureit • cureit
…
#> (Intercept), Cure model         age, Cure model    grade_ii, Cure model 
#>            -0.575003030             0.009813492             0.108542405 
#>   grade_iii, Cure model 
#>             0.823899189 
#> 
#> $surv_formula
#> Surv(ttdeath, death) ~ age + grade
#> <environment: 0x55622a58c988>
#> 
#> $cure_formula
#> ~age + grade
#> <environment: 0x55622a58c988>
#> 
#> $data
#> # A tibble: 200 × 8
#>    trt      age marker stage grade response death ttdeath
#>    <chr>  <dbl>  <dbl> <fct> <fct>    <int> <dbl>   <dbl>
#>  1 Drug A    23  0.16  T1    II           0     0    24  
#>  2 Drug B     9  1.11  T2    I            1     0    24  
#>  3 Drug A    31  0.277 T1    II           0     0    24  
#>  4 Drug A    NA  2.07  T3    III          1     1    17.6
#>  5 Drug A    51  2.77  T4    III          1     1    16.4
#>  6 Drug B    39  0.613 T4    I            0     1    15.6
#>  7 Drug A    37  0.354 T1    II           0     0    24  
#>  8 Drug A    32  1.74  T1    I            0     1    18.4
#>  9 Drug A    31  0.144 T1    II           0     0    24  
#> 10 Drug B    34  0.205 T3    I            0     1    10.5
#> # … with 190 more rows
…
